(module FIDUCIAL_1MM (layer F.Cu) (tedit 53C66B87)
  (fp_text reference FIDUCIAL_1MM (at 0 2) (layer F.SilkS) hide
    (effects (font (size 1 1) (thickness 0.15)))
  )
  (fp_text value VAL** (at 0.1 3.5) (layer F.SilkS) hide
    (effects (font (size 1 1) (thickness 0.15)))
  )
  (pad "" smd circle (at 0 0) (size 1 1) (layers F.Cu F.Mask)
    (solder_mask_margin 1))
)
